{
  "classifierPath" : "meta::pure::metamodel::type::Class",
  "content" : {
    "_type" : "class",
    "name" : "Commodity",
    "package" : "underliers::asset",
    "properties" : [ {
      "multiplicity" : {
        "lowerBound" : 1,
        "upperBound" : 1
      },
      "name" : "location",
      "type" : "String"
    } ],
    "superTypes" : [ "underliers::Underlier" ]
  }
}