{
  "classifierPath" : "meta::pure::metamodel::type::Class",
  "content" : {
    "_type" : "class",
    "name" : "FxPriceBenchmark",
    "package" : "underliers::benchmarks",
    "properties" : [ {
      "multiplicity" : {
        "lowerBound" : 1,
        "upperBound" : 1
      },
      "name" : "pair",
      "type" : "underliers::benchmarks::Pair"
    } ],
    "superTypes" : [ "underliers::benchmarks::PriceBenchmark" ]
  }
}