{
  "classifierPath" : "meta::pure::metamodel::type::Class",
  "content" : {
    "_type" : "class",
    "name" : "PriceBenchmark",
    "package" : "underliers::benchmarks",
    "superTypes" : [ "underliers::benchmarks::Benchmark" ]
  }
}